[gd_scene load_steps=4 format=2]

[ext_resource path="res://scenes/Cannon.gd" type="Script" id=1]
[ext_resource path="res://assets/sprites/turret.png" type="Texture" id=2]

[sub_resource type="CapsuleShape2D" id=1]
radius = 29.3313
height = 11.0678

[node name="Cannon" type="StaticBody2D"]
script = ExtResource( 1 )
_sections_unfolded = [ "Transform" ]

[node name="Sprite" type="Sprite" parent="."]
scale = Vector2( 0.5, 0.5 )
texture = ExtResource( 2 )

[node name="CollisionShape2D" type="CollisionShape2D" parent="."]
shape = SubResource( 1 )
