[gd_scene load_steps=9 format=2]

[ext_resource path="res://scenes/Tank.gd" type="Script" id=1]
[ext_resource path="res://assets/sprites/tank_rotated.png" type="Texture" id=2]
[ext_resource path="res://assets/sprites/turret_rotated.png" type="Texture" id=3]
[ext_resource path="res://assets/sprites/muzzleflash.png" type="Texture" id=4]
[ext_resource path="res://assets/sounds/Humvee.wav" type="AudioStream" id=5]
[ext_resource path="res://assets/sounds/Tank Firing-SoundBible.com-998264747.wav" type="AudioStream" id=6]

[sub_resource type="RectangleShape2D" id=1]
extents = Vector2( 32.2956, 29.4891 )

[sub_resource type="RectangleShape2D" id=2]
extents = Vector2( 31.5524, 29.6378 )

[node name="Tank" type="KinematicBody2D"]
z_index = 1
script = ExtResource( 1 )
__meta__ = {
"_edit_group_": true
}
gun_cooldown = 0.8

[node name="Body" type="Sprite" parent="."]
scale = Vector2( 0.1, 0.1 )
texture = ExtResource( 2 )

[node name="Turret" type="Sprite" parent="."]
scale = Vector2( 0.1, 0.1 )
texture = ExtResource( 3 )
offset = Vector2( 90, 0 )

[node name="Muzzle" type="Position2D" parent="Turret"]
position = Vector2( 450, 0 )

[node name="MuzzleFlash" type="Sprite" parent="Turret/Muzzle"]
visible = false
scale = Vector2( 1.5, 1.5 )
texture = ExtResource( 4 )
offset = Vector2( 300, 0 )

[node name="GunTimer" type="Timer" parent="."]
one_shot = true

[node name="CollisionShape2D" type="CollisionShape2D" parent="."]
visible = false
shape = SubResource( 1 )

[node name="TankSound" type="AudioStreamPlayer" parent="."]
stream = ExtResource( 5 )

[node name="SoundTimer" type="Timer" parent="."]
wait_time = 0.4

[node name="FireSound" type="AudioStreamPlayer2D" parent="."]
stream = ExtResource( 6 )

[node name="MuzzleFlashTimer" type="Timer" parent="."]
wait_time = 0.1
one_shot = true

[node name="Area2D" type="Area2D" parent="."]

[node name="CollisionShape2D" type="CollisionShape2D" parent="Area2D"]
visible = false
shape = SubResource( 2 )

[node name="CollisionPolygon2D" type="CollisionPolygon2D" parent="Area2D"]
polygon = PoolVector2Array( -33.7053, -26.5161, -31.3269, -30.2324, -6.65088, -30.0837, -4.56977, -28.0026, -4.12382, -23.5431, 4.05198, -23.5431, 4.94389, -27.854, 7.76825, -30.2324, 30.9578, -30.5297, 33.9308, -26.962, 34.3768, -18.7862, 30.9578, -14.9213, 26.7956, -14.624, 24.8631, -12.3943, 22.336, -12.2456, 22.1874, -8.67799, 20.9982, -7.63743, 19.2144, -7.04283, 19.363, -3.17791, 19.5117, 3.66003, 19.6603, 7.67361, 21.8901, 8.86281, 22.782, 12.8764, 26.201, 14.2142, 27.3902, 16.1467, 32.4443, 16.1467, 34.2281, 18.6738, 34.5254, 26.7009, 31.8497, 30.7145, 8.36285, 30.5658, 5.09254, 29.0793, 4.49793, 24.6198, -3.97517, 24.6198, -4.27247, 28.782, -8.43469, 30.7145, -31.9215, 30.8631, -33.854, 26.7009, -33.854, 18.2278, -31.6242, 15.7008, -26.5701, 15.5521, -24.1917, 13.025, -23.1511, 8.11956, -28.6512, 8.26821, -29.6918, 5.8898, -33.1107, 5.8898, -33.408, 3.51138, -29.5431, 3.36273, -29.0972, 1.13297, -23.4484, 1.13297, -23.1511, -11.7997, -26.8674, -14.4754, -31.0296, -15.2186, -34.4486, -18.3403 )

[node name="DissolveTween" type="Tween" parent="."]

[node name="ExhaustPoint" type="Position2D" parent="."]
position = Vector2( -35, 5 )

[connection signal="timeout" from="GunTimer" to="." method="_on_GunTimer_timeout"]
[connection signal="timeout" from="SoundTimer" to="." method="_on_SoundTimer_timeout"]
[connection signal="timeout" from="MuzzleFlashTimer" to="." method="_on_MuzzleFlashTimer_timeout"]
[connection signal="body_entered" from="Area2D" to="." method="_on_Area2D_body_entered"]
[connection signal="body_exited" from="Area2D" to="." method="_on_Area2D_body_exited"]
[connection signal="tween_completed" from="DissolveTween" to="." method="_on_DissolveTween_tween_completed"]
