[gd_scene load_steps=6 format=2]

[ext_resource path="res://assets/sprites/Bouncy Platform Long.png" type="Texture" id=1]
[ext_resource path="res://scenes/blocks/Floor.gd" type="Script" id=2]
[ext_resource path="res://assets/sounds/bounce.wav" type="AudioStream" id=3]

[sub_resource type="RectangleShape2D" id=1]
extents = Vector2( 130, 20 )

[sub_resource type="RectangleShape2D" id=2]
extents = Vector2( 129.75, 19.5964 )

[node name="Floor" type="StaticBody2D"]
script = ExtResource( 2 )
__meta__ = {
"_edit_group_": true
}

[node name="Sprite" type="Sprite" parent="."]
position = Vector2( -2.38419e-06, -0.350877 )
scale = Vector2( 0.849673, 0.701754 )
texture = ExtResource( 1 )

[node name="CollisionShape2D" type="CollisionShape2D" parent="."]
shape = SubResource( 1 )

[node name="HitDetection" type="Area2D" parent="."]

[node name="CollisionShape2D" type="CollisionShape2D" parent="HitDetection"]
shape = SubResource( 2 )

[node name="HitSound" type="AudioStreamPlayer" parent="."]
stream = ExtResource( 3 )

[connection signal="body_entered" from="HitDetection" to="." method="_on_HitDetection_body_entered"]
