[gd_scene load_steps=6 format=2]

[ext_resource path="res://assets/sprites/Bouncy Platform Long.png" type="Texture" id=1]
[ext_resource path="res://scenes/blocks/Wall.gd" type="Script" id=2]
[ext_resource path="res://assets/sounds/bounce.wav" type="AudioStream" id=3]

[sub_resource type="RectangleShape2D" id=1]
extents = Vector2( 90, 20 )

[sub_resource type="RectangleShape2D" id=2]
extents = Vector2( 89.1718, 19.5964 )

[node name="Wall" type="StaticBody2D"]
rotation = 1.5708
script = ExtResource( 2 )
__meta__ = {
"_edit_group_": true
}

[node name="Sprite" type="Sprite" parent="."]
position = Vector2( 0.345418, -0.197991 )
scale = Vector2( 0.588682, 0.686431 )
texture = ExtResource( 1 )

[node name="CollisionShape2D" type="CollisionShape2D" parent="."]
shape = SubResource( 1 )

[node name="HitDetection" type="Area2D" parent="."]

[node name="CollisionShape2D" type="CollisionShape2D" parent="HitDetection"]
shape = SubResource( 2 )

[node name="HitSound" type="AudioStreamPlayer" parent="."]
stream = ExtResource( 3 )
volume_db = 2.0

[connection signal="body_entered" from="HitDetection" to="." method="_on_HitDetection_body_entered"]
