[gd_scene load_steps=4 format=2]

[ext_resource path="res://assets/sprites/Wood Platform Small.png" type="Texture" id=1]
[ext_resource path="res://assets/sounds/wood.wav" type="AudioStream" id=2]
[ext_resource path="res://scenes/blocks/WoodPlatformSmall.gd" type="Script" id=3]

[node name="WoodPlatformSmall" type="StaticBody2D"]
script = ExtResource( 3 )

[node name="Sprite" type="Sprite" parent="."]
texture = ExtResource( 1 )

[node name="CollisionPolygon2D" type="CollisionPolygon2D" parent="."]
polygon = PoolVector2Array( -41.0501, -29.465, 42.6475, -29.2001, 49.2691, -23.1082, 50.3286, 21.1244, 42.3826, 30.3947, -40.2555, 30.3947, -49.2609, 22.4487, -49.7907, -21.2542 )

[node name="HitDetection" type="Area2D" parent="."]

[node name="CollisionPolygon2D" type="CollisionPolygon2D" parent="HitDetection"]
polygon = PoolVector2Array( -34.9578, -28.4056, 34.9667, -28.4056, 51.3883, -13.3083, 52.1829, 12.3837, 35.2315, 28.5405, -34.9578, 29.3351, -51.3795, 13.708, -51.3795, -13.838 )

[node name="HitSound" type="AudioStreamPlayer" parent="."]
stream = ExtResource( 2 )
volume_db = 2.0

[connection signal="body_entered" from="HitDetection" to="." method="_on_HitDetection_body_entered"]
