[gd_scene load_steps=4 format=2]

[ext_resource path="res://assets/sprites/Wood Square.png" type="Texture" id=1]
[ext_resource path="res://assets/sounds/wood.wav" type="AudioStream" id=2]
[ext_resource path="res://scenes/blocks/WoodSquare.gd" type="Script" id=3]

[node name="WoodSquare" type="StaticBody2D"]
script = ExtResource( 3 )

[node name="Sprite" type="Sprite" parent="."]
texture = ExtResource( 1 )

[node name="CollisionPolygon2D" type="CollisionPolygon2D" parent="."]
polygon = PoolVector2Array( -35.223, -50.6543, 37.615, -50.3894, 51.1232, -37.9407, 51.3881, 33.8379, 37.7818, 51.7948, -35.4879, 51.5839, -50.3204, 37.8109, -50.8501, -36.8813 )

[node name="HitDetection" type="Area2D" parent="."]

[node name="CollisionPolygon2D" type="CollisionPolygon2D" parent="HitDetection"]
polygon = PoolVector2Array( -37.3217, -49.61, 36.1117, -50.2046, 50.6795, -35.3396, 50.9768, 37.4993, 35.2198, 51.7697, -35.5379, 52.6616, -51.2949, 36.6074, -51.2949, -35.6369 )

[node name="HitSound" type="AudioStreamPlayer" parent="."]
stream = ExtResource( 2 )
volume_db = 2.0

[connection signal="body_entered" from="HitDetection" to="." method="_on_HitDetection_body_entered"]
